[
  {
    "meta": {
      "limit": 100,
      "next": "/api/v1/produto_preco?limit=100&offset=100",
      "offset": 0,
      "previous": null,
      "total_count": 258
    },
    "objects": [
      {
        "cheio": "19000.0000",
        "custo": null,
        "id": 173790170,
        "produto": "/api/v1/produto/332011851",
        "promocional": null,
        "resource_uri": "/api/v1/produto_preco/332011851",
        "sob_consulta": false
      },
      {
        "cheio": "13610.0000",
        "custo": null,
        "id": 19388071,
        "produto": "/api/v1/produto/20349578",
        "promocional": null,
        "resource_uri": "/api/v1/produto_preco/20349578",
        "sob_consulta": false
      },
      {
        "cheio": "1538.9000",
        "custo": null,
        "id": 19388544,
        "produto": "/api/v1/produto/20350052",
        "promocional": null,
        "resource_uri": "/api/v1/produto_preco/20350052",
        "sob_consulta": false
      },
      {
        "cheio": "7269.0000",
        "custo": null,
        "id": 21157080,
        "produto": "/api/v1/produto/22899321",
        "promocional": null,
        "resource_uri": "/api/v1/produto_preco/22899321",
        "sob_consulta": false
      },
      {
        "cheio": "1.0000",
        "custo": null,
        "id": 19466079,
        "produto": "/api/v1/produto/20428254",
        "promocional": null,
        "resource_uri": "/api/v1/produto_preco/20428254",
        "sob_consulta": false
      },
      {
        "cheio": "8000.0000",
        "custo": null,
        "id": 19388003,
        "produto": "/api/v1/produto/20349510",
        "promocional": null,
        "resource_uri": "/api/v1/produto_preco/20349510",
        "sob_consulta": false
      },
      {
        "cheio": "6110.0000",
        "custo": null,
        "id": 19388033,
        "produto": "/api/v1/produto/20349540",
        "promocional": null,
        "resource_uri": "/api/v1/produto_preco/20349540",
        "sob_consulta": false
      },
      {
        "cheio": "1.0000",
        "custo": null,
        "id": 19841535,
        "produto": "/api/v1/produto/20815022",
        "promocional": null,
        "resource_uri": "/api/v1/produto_preco/20815022",
        "sob_consulta": false
      },
      {
        "cheio": "499.0000",
        "custo": null,
        "id": 20057601,
        "produto": "/api/v1/produto/21048192",
        "promocional": null,
        "resource_uri": "/api/v1/produto_preco/21048192",
        "sob_consulta": false
      },
      {
        "cheio": "499.0000",
        "custo": null,
        "id": 20058418,
        "produto": "/api/v1/produto/21049031",
        "promocional": null,
        "resource_uri": "/api/v1/produto_preco/21049031",
        "sob_consulta": false
      },
      {
        "cheio": "299.0000",
        "custo": null,
        "id": 20059399,
        "produto": "/api/v1/produto/21050043",
        "promocional": null,
        "resource_uri": "/api/v1/produto_preco/21050043",
        "sob_consulta": false
      },
      {
        "cheio": "12700.0000",
        "custo": null,
        "id": 21768090,
        "produto": "/api/v1/produto/23700198",
        "promocional": null,
        "resource_uri": "/api/v1/produto_preco/23700198",
        "sob_consulta": false
      },
      {
        "cheio": "31405.1300",
        "custo": null,
        "id": 23133432,
        "produto": "/api/v1/produto/26181681",
        "promocional": null,
        "resource_uri": "/api/v1/produto_preco/26181681",
        "sob_consulta": false
      },
      {
        "cheio": "225.0000",
        "custo": null,
        "id": 25842923,
        "produto": "/api/v1/produto/29317478",
        "promocional": null,
        "resource_uri": "/api/v1/produto_preco/29317478",
        "sob_consulta": false
      },
      {
        "cheio": "75.0000",
        "custo": null,
        "id": 25837032,
        "produto": "/api/v1/produto/29311320",
        "promocional": null,
        "resource_uri": "/api/v1/produto_preco/29311320",
        "sob_consulta": true
      },
      {
        "cheio": "199.0000",
        "custo": null,
        "id": 25837287,
        "produto": "/api/v1/produto/29311580",
        "promocional": null,
        "resource_uri": "/api/v1/produto_preco/29311580",
        "sob_consulta": false
      },
      {
        "cheio": "27.7800",
        "custo": null,
        "id": 25922540,
        "produto": "/api/v1/produto/29398666",
        "promocional": null,
        "resource_uri": "/api/v1/produto_preco/29398666",
        "sob_consulta": false
      },
      {
        "cheio": "9.9000",
        "custo": null,
        "id": 25916961,
        "produto": "/api/v1/produto/29392816",
        "promocional": null,
        "resource_uri": "/api/v1/produto_preco/29392816",
        "sob_consulta": false
      },
      {
        "cheio": "449.0000",
        "custo": null,
        "id": 25918897,
        "produto": "/api/v1/produto/29395016",
        "promocional": null,
        "resource_uri": "/api/v1/produto_preco/29395016",
        "sob_consulta": false
      },
      {
        "cheio": "54.4400",
        "custo": null,
        "id": 25926250,
        "produto": "/api/v1/produto/29402502",
        "promocional": null,
        "resource_uri": "/api/v1/produto_preco/29402502",
        "sob_consulta": false
      },
      {
        "cheio": "1.0000",
        "custo": null,
        "id": 28905476,
        "produto": "/api/v1/produto/32650916",
        "promocional": null,
        "resource_uri": "/api/v1/produto_preco/32650916",
        "sob_consulta": false
      },
      {
        "cheio": "100.0000",
        "custo": null,
        "id": 26059786,
        "produto": "/api/v1/produto/29542265",
        "promocional": null,
        "resource_uri": "/api/v1/produto_preco/29542265",
        "sob_consulta": false
      },
      {
        "cheio": null,
        "custo": null,
        "id": 26060646,
        "produto": "/api/v1/produto/29543174",
        "promocional": null,
        "resource_uri": "/api/v1/produto_preco/29543174",
        "sob_consulta": false
      },
      {
        "cheio": null,
        "custo": null,
        "id": 26367037,
        "produto": "/api/v1/produto/29873895",
        "promocional": null,
        "resource_uri": "/api/v1/produto_preco/29873895",
        "sob_consulta": false
      },
      {
        "cheio": "1665.5500",
        "custo": null,
        "id": 26366031,
        "produto": "/api/v1/produto/29872856",
        "promocional": null,
        "resource_uri": "/api/v1/produto_preco/29872856",
        "sob_consulta": false
      },
      {
        "cheio": null,
        "custo": null,
        "id": 27354387,
        "produto": "/api/v1/produto/30960656",
        "promocional": null,
        "resource_uri": "/api/v1/produto_preco/30960656",
        "sob_consulta": false
      },
      {
        "cheio": "3554.4400",
        "custo": null,
        "id": 27374328,
        "produto": "/api/v1/produto/30982458",
        "promocional": null,
        "resource_uri": "/api/v1/produto_preco/30982458",
        "sob_consulta": false
      },
      {
        "cheio": "2347.9900",
        "custo": null,
        "id": 27459036,
        "produto": "/api/v1/produto/31076549",
        "promocional": null,
        "resource_uri": "/api/v1/produto_preco/31076549",
        "sob_consulta": false
      },
      {
        "cheio": null,
        "custo": null,
        "id": 27374934,
        "produto": "/api/v1/produto/30983207",
        "promocional": null,
        "resource_uri": "/api/v1/produto_preco/30983207",
        "sob_consulta": false
      },
      {
        "cheio": "2554.4400",
        "custo": null,
        "id": 27458426,
        "produto": "/api/v1/produto/31075901",
        "promocional": null,
        "resource_uri": "/api/v1/produto_preco/31075901",
        "sob_consulta": false
      },
      {
        "cheio": "9610.0000",
        "custo": null,
        "id": 27492462,
        "produto": "/api/v1/produto/31115646",
        "promocional": null,
        "resource_uri": "/api/v1/produto_preco/31115646",
        "sob_consulta": false
      },
      {
        "cheio": "311.0000",
        "custo": null,
        "id": 27977606,
        "produto": "/api/v1/produto/31650362",
        "promocional": null,
        "resource_uri": "/api/v1/produto_preco/31650362",
        "sob_consulta": false
      },
      {
        "cheio": "15.0000",
        "custo": null,
        "id": 31848917,
        "produto": "/api/v1/produto/35704748",
        "promocional": null,
        "resource_uri": "/api/v1/produto_preco/35704748",
        "sob_consulta": false
      },
      {
        "cheio": "654.4400",
        "custo": null,
        "id": 21909572,
        "produto": "/api/v1/produto/23960330",
        "promocional": null,
        "resource_uri": "/api/v1/produto_preco/23960330",
        "sob_consulta": false
      },
      {
        "cheio": "2993.3400",
        "custo": null,
        "id": 28277109,
        "produto": "/api/v1/produto/31984599",
        "promocional": null,
        "resource_uri": "/api/v1/produto_preco/31984599",
        "sob_consulta": false
      },
      {
        "cheio": "3998.8900",
        "custo": null,
        "id": 22696780,
        "produto": "/api/v1/produto/25400838",
        "promocional": null,
        "resource_uri": "/api/v1/produto_preco/25400838",
        "sob_consulta": true
      },
      {
        "cheio": "72800.0000",
        "custo": null,
        "id": 26549696,
        "produto": "/api/v1/produto/30083531",
        "promocional": null,
        "resource_uri": "/api/v1/produto_preco/30083531",
        "sob_consulta": true
      },
      {
        "cheio": "13377.0000",
        "custo": null,
        "id": 50425763,
        "produto": "/api/v1/produto/56733433",
        "promocional": null,
        "resource_uri": "/api/v1/produto_preco/56733433",
        "sob_consulta": false
      },
      {
        "cheio": "899.0000",
        "custo": null,
        "id": 19388112,
        "produto": "/api/v1/produto/20349619",
        "promocional": null,
        "resource_uri": "/api/v1/produto_preco/20349619",
        "sob_consulta": false
      },
      {
        "cheio": "4799.9900",
        "custo": null,
        "id": 29847191,
        "produto": "/api/v1/produto/33627476",
        "promocional": null,
        "resource_uri": "/api/v1/produto_preco/33627476",
        "sob_consulta": false
      },
      {
        "cheio": "1999.0000",
        "custo": null,
        "id": 29847613,
        "produto": "/api/v1/produto/33627900",
        "promocional": null,
        "resource_uri": "/api/v1/produto_preco/33627900",
        "sob_consulta": false
      },
      {
        "cheio": "280.0000",
        "custo": null,
        "id": 25921367,
        "produto": "/api/v1/produto/29397491",
        "promocional": "189.0000",
        "resource_uri": "/api/v1/produto_preco/29397491",
        "sob_consulta": false
      },
      {
        "cheio": "143.3300",
        "custo": null,
        "id": 25924970,
        "produto": "/api/v1/produto/29401217",
        "promocional": "89.0000",
        "resource_uri": "/api/v1/produto_preco/29401217",
        "sob_consulta": false
      },
      {
        "cheio": "499.0000",
        "custo": null,
        "id": 34445845,
        "produto": "/api/v1/produto/38416474",
        "promocional": null,
        "resource_uri": "/api/v1/produto_preco/38416474",
        "sob_consulta": false
      },
      {
        "cheio": "189.0000",
        "custo": null,
        "id": 34438737,
        "produto": "/api/v1/produto/38408927",
        "promocional": "99.0000",
        "resource_uri": "/api/v1/produto_preco/38408927",
        "sob_consulta": false
      },
      {
        "cheio": "3249.0000",
        "custo": null,
        "id": 34440659,
        "produto": "/api/v1/produto/38411038",
        "promocional": null,
        "resource_uri": "/api/v1/produto_preco/38411038",
        "sob_consulta": false
      },
      {
        "cheio": "749.0000",
        "custo": null,
        "id": 24730534,
        "produto": "/api/v1/produto/28156156",
        "promocional": null,
        "resource_uri": "/api/v1/produto_preco/28156156",
        "sob_consulta": false
      },
      {
        "cheio": null,
        "custo": null,
        "id": 33143847,
        "produto": "/api/v1/produto/37044039",
        "promocional": null,
        "resource_uri": "/api/v1/produto_preco/37044039",
        "sob_consulta": false
      },
      {
        "cheio": "1067.8300",
        "custo": null,
        "id": 37633107,
        "produto": "/api/v1/produto/41686869",
        "promocional": "213.4000",
        "resource_uri": "/api/v1/produto_preco/41686869",
        "sob_consulta": false
      },
      {
        "cheio": "5000.0000",
        "custo": null,
        "id": 50487542,
        "produto": "/api/v1/produto/56802194",
        "promocional": null,
        "resource_uri": "/api/v1/produto_preco/56802194",
        "sob_consulta": false
      },
      {
        "cheio": "21110.0000",
        "custo": null,
        "id": 29198005,
        "produto": "/api/v1/produto/32955561",
        "promocional": null,
        "resource_uri": "/api/v1/produto_preco/32955561",
        "sob_consulta": false
      },
      {
        "cheio": "5223.0000",
        "custo": null,
        "id": 50552427,
        "produto": "/api/v1/produto/56873215",
        "promocional": null,
        "resource_uri": "/api/v1/produto_preco/56873215",
        "sob_consulta": false
      },
      {
        "cheio": "1199.0000",
        "custo": null,
        "id": 19492087,
        "produto": "/api/v1/produto/20454716",
        "promocional": null,
        "resource_uri": "/api/v1/produto_preco/20454716",
        "sob_consulta": false
      },
      {
        "cheio": "230.0000",
        "custo": null,
        "id": 25923467,
        "produto": "/api/v1/produto/29399691",
        "promocional": null,
        "resource_uri": "/api/v1/produto_preco/29399691",
        "sob_consulta": false
      },
      {
        "cheio": "109.0000",
        "custo": null,
        "id": 25837455,
        "produto": "/api/v1/produto/29311750",
        "promocional": null,
        "resource_uri": "/api/v1/produto_preco/29311750",
        "sob_consulta": false
      },
      {
        "cheio": "79.0000",
        "custo": null,
        "id": 51719081,
        "produto": "/api/v1/produto/58210511",
        "promocional": null,
        "resource_uri": "/api/v1/produto_preco/58210511",
        "sob_consulta": false
      },
      {
        "cheio": "299.0000",
        "custo": null,
        "id": 52851260,
        "produto": "/api/v1/produto/59525379",
        "promocional": null,
        "resource_uri": "/api/v1/produto_preco/59525379",
        "sob_consulta": false
      },
      {
        "cheio": "10021.1100",
        "custo": null,
        "id": 100887319,
        "produto": "/api/v1/produto/159737349",
        "promocional": "9621.1100",
        "resource_uri": "/api/v1/produto_preco/159737349",
        "sob_consulta": false
      },
      {
        "cheio": "115000.0000",
        "custo": null,
        "id": 126925835,
        "produto": "/api/v1/produto/203319277",
        "promocional": null,
        "resource_uri": "/api/v1/produto_preco/203319277",
        "sob_consulta": true
      },
      {
        "cheio": "1221.1100",
        "custo": null,
        "id": 29847350,
        "produto": "/api/v1/produto/33627636",
        "promocional": null,
        "resource_uri": "/api/v1/produto_preco/33627636",
        "sob_consulta": false
      },
      {
        "cheio": "319.0000",
        "custo": null,
        "id": 19500146,
        "produto": "/api/v1/produto/20462815",
        "promocional": null,
        "resource_uri": "/api/v1/produto_preco/20462815",
        "sob_consulta": false
      },
      {
        "cheio": "165.0000",
        "custo": null,
        "id": 64187107,
        "produto": "/api/v1/produto/83830517",
        "promocional": null,
        "resource_uri": "/api/v1/produto_preco/83830517",
        "sob_consulta": false
      },
      {
        "cheio": "69.0000",
        "custo": null,
        "id": 64202611,
        "produto": "/api/v1/produto/83876732",
        "promocional": null,
        "resource_uri": "/api/v1/produto_preco/83876732",
        "sob_consulta": false
      },
      {
        "cheio": "120.0000",
        "custo": null,
        "id": 64202892,
        "produto": "/api/v1/produto/83877323",
        "promocional": "89.0000",
        "resource_uri": "/api/v1/produto_preco/83877323",
        "sob_consulta": false
      },
      {
        "cheio": "650.0000",
        "custo": null,
        "id": 64188027,
        "produto": "/api/v1/produto/83832307",
        "promocional": null,
        "resource_uri": "/api/v1/produto_preco/83832307",
        "sob_consulta": false
      },
      {
        "cheio": "90.0000",
        "custo": null,
        "id": 64113031,
        "produto": "/api/v1/produto/83712413",
        "promocional": null,
        "resource_uri": "/api/v1/produto_preco/83712413",
        "sob_consulta": false
      },
      {
        "cheio": "7699.0000",
        "custo": null,
        "id": 23004177,
        "produto": "/api/v1/produto/25990512",
        "promocional": null,
        "resource_uri": "/api/v1/produto_preco/25990512",
        "sob_consulta": true
      },
      {
        "cheio": "299.0000",
        "custo": null,
        "id": 27978091,
        "produto": "/api/v1/produto/31651003",
        "promocional": null,
        "resource_uri": "/api/v1/produto_preco/31651003",
        "sob_consulta": false
      },
      {
        "cheio": "1849.0000",
        "custo": null,
        "id": 27979109,
        "produto": "/api/v1/produto/31652185",
        "promocional": null,
        "resource_uri": "/api/v1/produto_preco/31652185",
        "sob_consulta": false
      },
      {
        "cheio": "300.0000",
        "custo": null,
        "id": 64306152,
        "produto": "/api/v1/produto/84068236",
        "promocional": "220.0000",
        "resource_uri": "/api/v1/produto_preco/84068236",
        "sob_consulta": false
      },
      {
        "cheio": "200.0000",
        "custo": null,
        "id": 25923503,
        "produto": "/api/v1/produto/29399729",
        "promocional": "165.5500",
        "resource_uri": "/api/v1/produto_preco/29399729",
        "sob_consulta": false
      },
      {
        "cheio": "1555.0000",
        "custo": null,
        "id": 22912623,
        "produto": "/api/v1/produto/25831720",
        "promocional": null,
        "resource_uri": "/api/v1/produto_preco/25831720",
        "sob_consulta": false
      },
      {
        "cheio": "249.0000",
        "custo": null,
        "id": 19393009,
        "produto": "/api/v1/produto/20354528",
        "promocional": null,
        "resource_uri": "/api/v1/produto_preco/20354528",
        "sob_consulta": false
      },
      {
        "cheio": "24443.3300",
        "custo": null,
        "id": 29198525,
        "produto": "/api/v1/produto/32956084",
        "promocional": null,
        "resource_uri": "/api/v1/produto_preco/32956084",
        "sob_consulta": true
      },
      {
        "cheio": "69.0000",
        "custo": null,
        "id": 34448413,
        "produto": "/api/v1/produto/38419061",
        "promocional": "59.0000",
        "resource_uri": "/api/v1/produto_preco/38419061",
        "sob_consulta": false
      },
      {
        "cheio": "79.0000",
        "custo": null,
        "id": 72365605,
        "produto": "/api/v1/produto/99572230",
        "promocional": null,
        "resource_uri": "/api/v1/produto_preco/99572230",
        "sob_consulta": false
      },
      {
        "cheio": "99.0000",
        "custo": null,
        "id": 25920183,
        "produto": "/api/v1/produto/29396307",
        "promocional": null,
        "resource_uri": "/api/v1/produto_preco/29396307",
        "sob_consulta": false
      },
      {
        "cheio": "99.0000",
        "custo": null,
        "id": 26057934,
        "produto": "/api/v1/produto/29540398",
        "promocional": null,
        "resource_uri": "/api/v1/produto_preco/29540398",
        "sob_consulta": false
      },
      {
        "cheio": "150.0000",
        "custo": null,
        "id": 64109911,
        "produto": "/api/v1/produto/83708340",
        "promocional": null,
        "resource_uri": "/api/v1/produto_preco/83708340",
        "sob_consulta": false
      },
      {
        "cheio": "229.0000",
        "custo": null,
        "id": 25926296,
        "produto": "/api/v1/produto/29402548",
        "promocional": "179.0000",
        "resource_uri": "/api/v1/produto_preco/29402548",
        "sob_consulta": false
      },
      {
        "cheio": "320.0000",
        "custo": null,
        "id": 34445127,
        "produto": "/api/v1/produto/38415756",
        "promocional": null,
        "resource_uri": "/api/v1/produto_preco/38415756",
        "sob_consulta": false
      },
      {
        "cheio": "5790.0000",
        "custo": null,
        "id": 177624971,
        "produto": "/api/v1/produto/343039842",
        "promocional": null,
        "resource_uri": "/api/v1/produto_preco/343039842",
        "sob_consulta": false
      },
      {
        "cheio": "11999.0000",
        "custo": null,
        "id": 101761429,
        "produto": "/api/v1/produto/161151371",
        "promocional": "10899.0000",
        "resource_uri": "/api/v1/produto_preco/161151371",
        "sob_consulta": false
      },
      {
        "cheio": null,
        "custo": null,
        "id": 82720947,
        "produto": "/api/v1/produto/125189083",
        "promocional": null,
        "resource_uri": "/api/v1/produto_preco/125189083",
        "sob_consulta": false
      },
      {
        "cheio": null,
        "custo": null,
        "id": 87203922,
        "produto": "/api/v1/produto/134150269",
        "promocional": null,
        "resource_uri": "/api/v1/produto_preco/134150269",
        "sob_consulta": false
      },
      {
        "cheio": "135.0000",
        "custo": null,
        "id": 25916395,
        "produto": "/api/v1/produto/29392177",
        "promocional": null,
        "resource_uri": "/api/v1/produto_preco/29392177",
        "sob_consulta": false
      },
      {
        "cheio": "1332.2200",
        "custo": null,
        "id": 26367061,
        "produto": "/api/v1/produto/29873919",
        "promocional": null,
        "resource_uri": "/api/v1/produto_preco/29873919",
        "sob_consulta": false
      },
      {
        "cheio": "349.0000",
        "custo": null,
        "id": 19388357,
        "produto": "/api/v1/produto/20349864",
        "promocional": null,
        "resource_uri": "/api/v1/produto_preco/20349864",
        "sob_consulta": false
      },
      {
        "cheio": "40.0000",
        "custo": null,
        "id": 26057842,
        "produto": "/api/v1/produto/29540304",
        "promocional": null,
        "resource_uri": "/api/v1/produto_preco/29540304",
        "sob_consulta": false
      },
      {
        "cheio": "34098.7600",
        "custo": null,
        "id": 19387962,
        "produto": "/api/v1/produto/20349469",
        "promocional": "30998.8800",
        "resource_uri": "/api/v1/produto_preco/20349469",
        "sob_consulta": true
      },
      {
        "cheio": "35499.0000",
        "custo": null,
        "id": 187489035,
        "produto": "/api/v1/produto/365654272",
        "promocional": null,
        "resource_uri": "/api/v1/produto_preco/365654272",
        "sob_consulta": false
      },
      {
        "cheio": "31611.1100",
        "custo": null,
        "id": 19388054,
        "produto": "/api/v1/produto/20349561",
        "promocional": null,
        "resource_uri": "/api/v1/produto_preco/20349561",
        "sob_consulta": true
      },
      {
        "cheio": "18999.0000",
        "custo": null,
        "id": 29847839,
        "produto": "/api/v1/produto/33628128",
        "promocional": null,
        "resource_uri": "/api/v1/produto_preco/33628128",
        "sob_consulta": true
      },
      {
        "cheio": "333.3300",
        "custo": null,
        "id": 25765019,
        "produto": "/api/v1/produto/29234745",
        "promocional": null,
        "resource_uri": "/api/v1/produto_preco/29234745",
        "sob_consulta": false
      },
      {
        "cheio": "80.0000",
        "custo": null,
        "id": 27978473,
        "produto": "/api/v1/produto/31651396",
        "promocional": "70.0000",
        "resource_uri": "/api/v1/produto_preco/31651396",
        "sob_consulta": false
      },
      {
        "cheio": "90.0000",
        "custo": null,
        "id": 64182082,
        "produto": "/api/v1/produto/83821979",
        "promocional": null,
        "resource_uri": "/api/v1/produto_preco/83821979",
        "sob_consulta": false
      },
      {
        "cheio": "10999.0000",
        "custo": null,
        "id": 27978599,
        "produto": "/api/v1/produto/31651672",
        "promocional": "8999.0000",
        "resource_uri": "/api/v1/produto_preco/31651672",
        "sob_consulta": true
      },
      {
        "cheio": null,
        "custo": null,
        "id": 88644489,
        "produto": "/api/v1/produto/137407546",
        "promocional": null,
        "resource_uri": "/api/v1/produto_preco/137407546",
        "sob_consulta": false
      },
      {
        "cheio": "3500.0000",
        "custo": null,
        "id": 117080488,
        "produto": "/api/v1/produto/186933050",
        "promocional": "3156.8500",
        "resource_uri": "/api/v1/produto_preco/186933050",
        "sob_consulta": false
      },
      {
        "cheio": "99.0000",
        "custo": null,
        "id": 34446398,
        "produto": "/api/v1/produto/38417035",
        "promocional": null,
        "resource_uri": "/api/v1/produto_preco/38417035",
        "sob_consulta": false
      }
    ]
  }
]